%YAML 1.1
%TAG !u! tag:unity3d.com,2011:
--- !u!221 &22100000
AnimatorOverrideController:
  m_ObjectHideFlags: 0
  m_CorrespondingSourceObject: {fileID: 0}
  m_PrefabInstance: {fileID: 0}
  m_PrefabAsset: {fileID: 0}
  m_Name: UnityChan
  m_Controller: {fileID: 9100000, guid: eab068fc6b034dc4a97b6f10e142b99d, type: 2}
  m_Clips:
  - m_OriginalClip: {fileID: 7400000, guid: ee562c7fcc309e848bc545666e452bc5, type: 2}
    m_OverrideClip: {fileID: 7400000, guid: 0147e212f97e3d449a4b9e4f5d057180, type: 3}
  - m_OriginalClip: {fileID: 7400000, guid: e40eebca9dd429049a1041cb897d0a4c, type: 2}
    m_OverrideClip: {fileID: 7400000, guid: 26055e26f15260e4e8e0e51f50c41926, type: 3}
  - m_OriginalClip: {fileID: 7400000, guid: fee209a609ff2bd4083a8a527ef3bdc7, type: 2}
    m_OverrideClip: {fileID: 7400000, guid: e2538d48c03da46a8b0c3b59d39a4cab, type: 3}
